<?xml version="1.0" encoding="utf-8"?>
<!-- Generator: Adobe Illustrator 24.0.0, SVG Export Plug-In . SVG Version: 6.00 Build 0)  -->
<svg version="1.1" id="Capa_1" xmlns="http://www.w3.org/2000/svg" xmlns:xlink="http://www.w3.org/1999/xlink" x="0px" y="0px"
	 viewBox="0 0 32.2 23" style="enable-background:new 0 0 32.2 23;" xml:space="preserve">
<style type="text/css">
	.st0{fill-rule:evenodd;clip-rule:evenodd;fill:#00FF00;}
	.st1{fill:#FFFFFF;}
	.st2{fill:#5D4BDE;}
	.st3{fill:#5D4BDE;stroke:#FFFFFF;stroke-width:1.288461e-03;stroke-miterlimit:10;}
</style>
<g>
	<path class="st0" d="M12,7.1l14.5-3.3l-0.2-0.9c-0.1-0.3-0.3-0.4-0.6-0.4L12.1,5.6c-0.3,0.1-0.4,0.3-0.4,0.6
		C11.8,6.5,11.9,6.8,12,7.1L12,7.1z M11.8,4.8l13.8-3.1C26.3,1.6,27,2,27.1,2.7l1.4,6.4h-0.9L27,6.2L12.5,9.5l0.9,4l0.1,0.4
		c0,0.1,0.2,0.2,0.3,0.2l0.1,0v0.8l0,0c-0.5,0.1-1.1-0.2-1.2-0.8l-1.7-7.7c-0.1-0.3,0-0.6,0.2-0.9C11.2,5.1,11.5,4.9,11.8,4.8
		L11.8,4.8L11.8,4.8z M15.4,9.3c-0.7,0-1.2,0.6-1.2,1.2v8c0,0.7,0.5,1.2,1.2,1.2h14.2c0.7,0,1.2-0.6,1.2-1.2v-8
		c0-0.7-0.6-1.2-1.2-1.2L15.4,9.3L15.4,9.3L15.4,9.3z M29.3,12.8c0-0.5,0-1.1,0-1.6c0-0.1-0.1-0.2-0.2-0.2c-1.2,0-2.4,0-3.6,0
		c-0.1,0-0.2,0.1-0.2,0.2c0,0.5,0,1.1,0,1.6c0,0.1,0.1,0.2,0.2,0.2c1.2,0,2.4,0,3.6,0C29.2,13,29.3,12.9,29.3,12.8L29.3,12.8z
		 M26.6,17.7c-0.1,0-0.2-0.1-0.2-0.2v-0.4c0-0.1,0.1-0.2,0.2-0.2h2.5c0.1,0,0.2,0.1,0.2,0.2v0.4c0,0.1-0.1,0.2-0.2,0.2H26.6
		L26.6,17.7L26.6,17.7z M23.1,17.7c-0.1,0-0.2-0.1-0.2-0.2v-0.4c0-0.1,0.1-0.2,0.2-0.2h2.5c0.1,0,0.2,0.1,0.2,0.2v0.4
		c0,0.1-0.1,0.2-0.2,0.2H23.1L23.1,17.7z M19.7,17.7c-0.1,0-0.2-0.1-0.2-0.2v-0.4c0-0.1,0.1-0.2,0.2-0.2h2.5c0.1,0,0.2,0.1,0.2,0.2
		v0.4c0,0.1-0.1,0.2-0.2,0.2H19.7L19.7,17.7z M16.2,17.7c-0.1,0-0.2-0.1-0.2-0.2v-0.4c0-0.1,0.1-0.2,0.2-0.2h2.5
		c0.1,0,0.2,0.1,0.2,0.2v0.4c0,0.1-0.1,0.2-0.2,0.2H16.2z"/>
	<rect x="2.5" y="2.4" class="st1" width="11.7" height="18.3"/>
	<g>
		<path class="st2" d="M7.7,15h1.3c0.2,0,0.4-0.2,0.4-0.4v-0.7c0-0.2-0.2-0.4-0.4-0.4H7.7c-0.2,0-0.4,0.2-0.4,0.4v0.7
			C7.4,14.8,7.5,15,7.7,15z"/>
		<path class="st2" d="M7.7,18.7h1.3c0.2,0,0.4-0.2,0.4-0.4v-0.7c0-0.2-0.2-0.4-0.4-0.4H7.7c-0.2,0-0.4,0.2-0.4,0.4v0.7
			C7.4,18.6,7.5,18.7,7.7,18.7z"/>
		<path class="st2" d="M4.6,15h1.3c0.2,0,0.4-0.2,0.4-0.4v-0.7c0-0.2-0.2-0.4-0.4-0.4H4.6c-0.2,0-0.4,0.2-0.4,0.4v0.7
			C4.2,14.8,4.4,15,4.6,15z"/>
		<path class="st2" d="M7.7,12.5h1.3c0.2,0,0.4-0.2,0.4-0.4v-0.7c0-0.2-0.2-0.4-0.4-0.4H7.7c-0.2,0-0.4,0.2-0.4,0.4v0.7
			C7.4,12.3,7.5,12.5,7.7,12.5z"/>
		<path class="st2" d="M7.7,9.9h1.3c0.2,0,0.4-0.2,0.4-0.4V8.8c0-0.2-0.2-0.4-0.4-0.4H7.7c-0.2,0-0.4,0.2-0.4,0.4v0.7
			C7.4,9.7,7.5,9.9,7.7,9.9z"/>
		<path class="st2" d="M12.2,17.3h-1.3c-0.2,0-0.4,0.2-0.4,0.4v0.7c0,0.2,0.2,0.4,0.4,0.4h1.3c0.2,0,0.4-0.2,0.4-0.4v-0.7
			C12.6,17.5,12.4,17.3,12.2,17.3z"/>
		<path class="st2" d="M6.3,18.4v-0.7c0-0.2-0.2-0.4-0.4-0.4H4.6c-0.2,0-0.4,0.2-0.4,0.4v0.7c0,0.2,0.2,0.4,0.4,0.4h1.3
			C6.1,18.7,6.3,18.6,6.3,18.4z"/>
		<path class="st3" d="M13.2,2.8H3.6c-0.4,0-0.7,0.3-0.7,0.7v16.1c0,0.4,0.3,0.7,0.7,0.7h1.1h7.5h1.1c0.4,0,0.7-0.3,0.7-0.7V3.5
			C13.9,3.2,13.6,2.8,13.2,2.8z M3.9,8.8c0-0.4,0.3-0.7,0.7-0.7h1.3c0.4,0,0.7,0.3,0.7,0.7v0.7c0,0.4-0.3,0.7-0.7,0.7H4.6
			c-0.4,0-0.7-0.3-0.7-0.7V8.8z M3.9,11.4c0-0.4,0.3-0.7,0.7-0.7h1.3c0.4,0,0.7,0.3,0.7,0.7v0.7c0,0.4-0.3,0.7-0.7,0.7H4.6
			c-0.4,0-0.7-0.3-0.7-0.7V11.4z M3.9,13.9c0-0.4,0.3-0.7,0.7-0.7h1.3c0.4,0,0.7,0.3,0.7,0.7v0.7c0,0.4-0.3,0.7-0.7,0.7H4.6
			c-0.4,0-0.7-0.3-0.7-0.7V13.9z M4.6,19.1c-0.4,0-0.7-0.3-0.7-0.7v-0.7c0-0.4,0.3-0.7,0.7-0.7h1.3c0.4,0,0.7,0.3,0.7,0.7v0.7
			c0,0.4-0.3,0.7-0.7,0.7H4.6z M5,20.4h6.8 M7.7,10.7h1.3c0.4,0,0.7,0.3,0.7,0.7v0.7c0,0.4-0.3,0.7-0.7,0.7H7.7
			c-0.4,0-0.7-0.3-0.7-0.7v-0.7C7,11,7.3,10.7,7.7,10.7z M7,9.5V8.8c0-0.4,0.3-0.7,0.7-0.7h1.3c0.4,0,0.7,0.3,0.7,0.7v0.7
			c0,0.4-0.3,0.7-0.7,0.7H7.7C7.3,10.2,7,9.9,7,9.5z M7.7,13.2h1.3c0.4,0,0.7,0.3,0.7,0.7v0.7c0,0.4-0.3,0.7-0.7,0.7H7.7
			C7.3,15.3,7,15,7,14.6v-0.7C7,13.5,7.3,13.2,7.7,13.2z M7.7,16.9h1.3c0.4,0,0.7,0.3,0.7,0.7v0.7c0,0.4-0.3,0.7-0.7,0.7H7.7
			c-0.4,0-0.7-0.3-0.7-0.7v-0.7C7,17.3,7.3,16.9,7.7,16.9z M12.9,18.4c0,0.4-0.3,0.7-0.7,0.7h-1.3c-0.4,0-0.7-0.3-0.7-0.7v-0.7
			c0-0.4,0.3-0.7,0.7-0.7h1.3c0.4,0,0.7,0.3,0.7,0.7V18.4z M12.9,14.6c0,0.4-0.3,0.7-0.7,0.7h-1.3c-0.4,0-0.7-0.3-0.7-0.7v-0.7
			c0-0.4,0.3-0.7,0.7-0.7h1.3c0.4,0,0.7,0.3,0.7,0.7V14.6z M12.9,12.1c0,0.4-0.3,0.7-0.7,0.7h-1.3c-0.4,0-0.7-0.3-0.7-0.7v-0.7
			c0-0.4,0.3-0.7,0.7-0.7h1.3c0.4,0,0.7,0.3,0.7,0.7V12.1z M12.9,9.5c0,0.4-0.3,0.7-0.7,0.7h-1.3c-0.4,0-0.7-0.3-0.7-0.7V8.8
			c0-0.4,0.3-0.7,0.7-0.7h1.3c0.4,0,0.7,0.3,0.7,0.7V9.5z M12.9,6.1c0,0.4-0.3,0.7-0.7,0.7H4.6c-0.4,0-0.7-0.3-0.7-0.7V4.6
			c0-0.4,0.3-0.7,0.7-0.7h7.6c0.4,0,0.7,0.3,0.7,0.7L12.9,6.1L12.9,6.1z"/>
		<path class="st2" d="M12.2,8.4h-1.3c-0.2,0-0.4,0.2-0.4,0.4v0.7c0,0.2,0.2,0.4,0.4,0.4h1.3c0.2,0,0.4-0.2,0.4-0.4V8.8
			C12.6,8.6,12.4,8.4,12.2,8.4z"/>
		<path class="st2" d="M12.2,4.2H4.6c-0.2,0-0.4,0.2-0.4,0.4v1.5c0,0.2,0.2,0.4,0.4,0.4h7.6c0.2,0,0.4-0.2,0.4-0.4V4.6
			C12.6,4.4,12.4,4.2,12.2,4.2z"/>
		<path class="st2" d="M12.2,11h-1.3c-0.2,0-0.4,0.2-0.4,0.4v0.7c0,0.2,0.2,0.4,0.4,0.4h1.3c0.2,0,0.4-0.2,0.4-0.4v-0.7
			C12.6,11.2,12.4,11,12.2,11z"/>
		<path class="st2" d="M4.6,9.9h1.3c0.2,0,0.4-0.2,0.4-0.4V8.8c0-0.2-0.2-0.4-0.4-0.4H4.6c-0.2,0-0.4,0.2-0.4,0.4v0.7
			C4.2,9.7,4.4,9.9,4.6,9.9z"/>
		<path class="st2" d="M12.2,13.6h-1.3c-0.2,0-0.4,0.2-0.4,0.4v0.7c0,0.2,0.2,0.4,0.4,0.4h1.3c0.2,0,0.4-0.2,0.4-0.4v-0.7
			C12.6,13.7,12.4,13.6,12.2,13.6z"/>
		<path class="st2" d="M4.6,12.5h1.3c0.2,0,0.4-0.2,0.4-0.4v-0.7c0-0.2-0.2-0.4-0.4-0.4H4.6c-0.2,0-0.4,0.2-0.4,0.4v0.7
			C4.2,12.3,4.4,12.5,4.6,12.5z"/>
	</g>
	<path class="st2" d="M13.4,19.2h-10c-0.3,0-0.6,0.3-0.6,0.6l0,0c0,0.3,0.3,0.6,0.6,0.6h10c0.3,0,0.6-0.3,0.6-0.6l0,0
		C13.9,19.5,13.7,19.2,13.4,19.2z"/>
</g>
</svg>
