<?xml version="1.0" encoding="utf-8"?>
<!-- Generator: Adobe Illustrator 22.0.0, SVG Export Plug-In . SVG Version: 6.00 Build 0)  -->
<svg version="1.1" id="Capa_1" xmlns="http://www.w3.org/2000/svg" xmlns:xlink="http://www.w3.org/1999/xlink" x="0px" y="0px"
	 viewBox="0 0 75 75" style="enable-background:new 0 0 75 75;" xml:space="preserve">
<style type="text/css">
	.st0{fill:none;stroke:#8AB853;stroke-width:5;stroke-miterlimit:10;}
	.st1{fill:none;stroke:#8AB853;stroke-width:8;stroke-miterlimit:10;}
</style>
<g>
	<circle class="st0" cx="38" cy="38" r="32.5"/>
	<polyline class="st1" points="22,40.7 32.2,50.8 54.9,28.2 	"/>
</g>
</svg>
