<?xml version="1.0" encoding="utf-8"?>
<!-- Generator: Adobe Illustrator 22.0.0, SVG Export Plug-In . SVG Version: 6.00 Build 0)  -->
<svg version="1.1" id="Capa_1" xmlns="http://www.w3.org/2000/svg" xmlns:xlink="http://www.w3.org/1999/xlink" x="0px" y="0px"
	 viewBox="0 0 75 75" style="enable-background:new 0 0 75 75;" xml:space="preserve">
<style type="text/css">
	.st0{fill:#8AB853;}
</style>
<g>
	<path class="st0" d="M64.3,69.3L6.6,11.6C5,10,4.7,7.7,6,6.5l0,0c1.2-1.2,3.5-0.9,5.1,0.7l57.7,57.7c1.6,1.6,1.9,3.9,0.7,5.1l0,0
		C68.2,71.2,65.9,70.9,64.3,69.3z"/>
	<path class="st0" d="M68.8,11.6L11.1,69.3C9.5,70.9,7.2,71.2,6,70h0c-1.2-1.2-0.9-3.5,0.7-5.1L64.3,7.1c1.6-1.6,3.9-1.9,5.1-0.7v0
		C70.7,7.7,70.4,10,68.8,11.6z"/>
</g>
</svg>
