<?xml version="1.0" encoding="utf-8"?>
<!-- Generator: Adobe Illustrator 22.0.0, SVG Export Plug-In . SVG Version: 6.00 Build 0)  -->
<svg version="1.1" id="Capa_1" xmlns="http://www.w3.org/2000/svg" xmlns:xlink="http://www.w3.org/1999/xlink" x="0px" y="0px"
	 viewBox="0 0 75 75" style="enable-background:new 0 0 75 75;" xml:space="preserve">
<style type="text/css">
	.st0{fill:#D7782D;}
</style>
<g>
	<g>
		<g>
			<path class="st0" d="M37.5,70C19.6,70,5,55.4,5,37.5C5,19.6,19.6,5,37.5,5C55.4,5,70,19.6,70,37.5C70,55.4,55.4,70,37.5,70z
				 M37.5,7.2C20.8,7.2,7.2,20.8,7.2,37.5c0,16.7,13.6,30.3,30.3,30.3c16.7,0,30.3-13.6,30.3-30.3C67.8,20.8,54.2,7.2,37.5,7.2z"/>
		</g>
	</g>
	<path class="st0" d="M47.2,33.1h-5.3v-5.3c0-1.2-1-2.1-2.1-2.1h-4.5c-1.2,0-2.1,1-2.1,2.1v5.3h-5.3c-1.2,0-2.1,1-2.1,2.1v4.5
		c0,1.2,1,2.1,2.1,2.1h5.3v5.3c0,1.2,1,2.1,2.1,2.1h4.5c1.2,0,2.1-1,2.1-2.1v-5.3h5.3c1.2,0,2.1-1,2.1-2.1v-4.5
		C49.4,34.1,48.4,33.1,47.2,33.1z"/>
</g>
</svg>
